27 Base R 实战指南 – R 数据科学 2e （双语）
…
然后，我们不遍历 paths 的元素，而是遍历它们的索引，使用 seq_along() 为 paths 的每个元素生成一个索引：

seq_along(paths)
#>  [1]  1  2  3  4  5  6  7  8  9 10 11 12

使用索引很重要，因为它允许我们将输入中的每个位置与输出中的相应位置联系起来：

for (i in seq_along(paths)) {
  files[[i]] <- readxl::read_excel(paths[[i]])
}

要将 tibble 列表合并为单个 tibble，你可以使用 do.call() + rbind()：

do.call(rbind, files)
#> # A tibble: 1,704 × 5
#>   country     continent lifeExp      pop gdpPercap
#>   <chr>       <chr>       <dbl>    <dbl>     <dbl>
#> 1 Afghanistan Asia         28.8  8425333      779.
#> 2 Albania     Europe       55.2  1282697     1601.
#> 3 Algeria     Africa       43.1  9279525     2449.
#> 4 Angola      Africa       30.0  4232095     3521.
#> 5 Argentina   Americas     62.5 17876956     5911.
#> 6 Australia   Oceania      69.1  8691212    10040.
#> # ℹ 1,698 more rows
…
