5 数据整理 – R 数据科学 2e （中文版）
…
你可以用多种方式来表示相同的基础数据。下面的例子展示了用三种不同方式组织的相同数据。每个数据集都显示了四个变量的相同值：country (国家)、year (年份)、population (人口) 和记录在案的 cases (结核病案例) 数量，但每个数据集以不同的方式组织这些值。

table1
#> # A tibble: 6 × 4
#>   country      year  cases population
#>   <chr>       <dbl>  <dbl>      <dbl>
#> 1 Afghanistan  1999    745   19987071
#> 2 Afghanistan  2000   2666   20595360
#> 3 Brazil       1999  37737  172006362
#> 4 Brazil       2000  80488  174504898
#> 5 China        1999 212258 1272915272
#> 6 China        2000 213766 1280428583

table2
#> # A tibble: 12 × 4
#>   country      year type           count
#>   <chr>       <dbl> <chr>          <dbl>
#> 1 Afghanistan  1999 cases            745
#> 2 Afghanistan  1999 population  19987071
#> 3 Afghanistan  2000 cases           2666
#> 4 Afghanistan  2000 population  20595360
#> 5 Brazil       1999 cases          37737
#> 6 Brazil       1999 population 172006362
#> # ℹ 6 more rows
…
数据的组织方式通常是为了方便某些分析之外的目标。例如，为了方便数据录入而非分析而组织数据是很常见的。

大多数人并不熟悉整洁数据的原则，除非你花大量时间处理数据，否则很难自己推导出这些原则。

这意味着大多数真实的分析至少需要一些整理工作。你将从弄清楚基础的变量和观测是什么开始。有时这很容易；其他时候你可能需要咨询最初生成数据的人。接下来，你将转换 (pivot) 你的数据，使其成为变量在列、观测在行的整洁形式。

tidyr 提供了两个用于转换数据的函数：pivot_longer() 和 pivot_wider()。我们先从 pivot_longer() 开始，因为这是最常见的情况。让我们来看一些例子。

5.3.1 列名中包含数据

billboard 数据集记录了 2000 年歌曲的广告牌排名：

billboard
#> # A tibble: 317 × 79
#>   artist       track               date.entered   wk1   wk2   wk3   wk4   wk5
#>   <chr>        <chr>               <date>       <dbl> <dbl> <dbl> <dbl> <dbl>
#> 1 2 Pac        Baby Don't Cry (Ke… 2000-02-26      87    82    72    77    87
#> 2 2Ge+her      The Hardest Part O… 2000-09-02      91    87    92    NA    NA
#> 3 3 Doors Down Kryptonite          2000-04-08      81    70    68    67    66
#> 4 3 Doors Down Loser               2000-10-21      76    76    72    69    67
#> 5 504 Boyz     Wobble Wobble       2000-04-15      57    34    25    17    17
#> 6 98^0         Give Me Just One N… 2000-08-19      51    39    34    26    26
#> # ℹ 311 more rows
#> # ℹ 71 more variables: wk6 <dbl>, wk7 <dbl>, wk8 <dbl>, wk9 <dbl>, …

在这个数据集中，每个观测是一首歌。前三列 (artist, track 和 date.entered) 是描述歌曲的变量。然后我们有 76 列 (wk1-wk76) 描述了歌曲在每周的排名1。在这里，列名是一个变量 (周，week)，而单元格的值是另一个变量 (排名，rank)。

为了整理这个数据，我们将使用 pivot_longer()：

billboard |> 
  pivot_longer(
    cols = starts_with("wk"), 
    names_to = "week", 
    values_to = "rank"
  )
#> # A tibble: 24,092 × 5
#>    artist track                   date.entered week   rank
#>    <chr>  <chr>                   <date>       <chr> <dbl>
#>  1 2 Pac  Baby Don't Cry (Keep... 2000-02-26   wk1      87
#>  2 2 Pac  Baby Don't Cry (Keep... 2000-02-26   wk2      82
#>  3 2 Pac  Baby Don't Cry (Keep... 2000-02-26   wk3      72
#>  4 2 Pac  Baby Don't Cry (Keep... 2000-02-26   wk4      77
#>  5 2 Pac  Baby Don't Cry (Keep... 2000-02-26   wk5      87
#>  6 2 Pac  Baby Don't Cry (Keep... 2000-02-26   wk6      94
#>  7 2 Pac  Baby Don't Cry (Keep... 2000-02-26   wk7      99
#>  8 2 Pac  Baby Don't Cry (Keep... 2000-02-26   wk8      NA
#>  9 2 Pac  Baby Don't Cry (Keep... 2000-02-26   wk9      NA
#> 10 2 Pac  Baby Don't Cry (Keep... 2000-02-26   wk10     NA
#> # ℹ 24,082 more rows
…
values_to 为存储在单元格值中的变量命名，我们将其命名为 rank。

请注意，在代码中 "week" 和 "rank" 是带引号的，因为它们是我们正在创建的新变量，在运行 pivot_longer() 调用时它们还不存在于数据中。

现在让我们把注意力转向结果中这个更长的数据框。如果一首歌在前 100 名的时间少于 76 周会发生什么？以 2 Pac 的 “Baby Don’t Cry” 为例。上面的输出表明它只在前 100 名中待了 7 周，所有剩余的周都用缺失值填充。这些 NA 并不真正代表未知的观测；它们是被数据集的结构强制存在的2，所以我们可以通过设置 values_drop_na = TRUE 来让 pivot_longer() 移除它们：

billboard |> 
  pivot_longer(
    cols = starts_with("wk"), 
    names_to = "week", 
    values_to = "rank",
    values_drop_na = TRUE
  )
#> # A tibble: 5,307 × 5
#>   artist track                   date.entered week   rank
#>   <chr>  <chr>                   <date>       <chr> <dbl>
#> 1 2 Pac  Baby Don't Cry (Keep... 2000-02-26   wk1      87
#> 2 2 Pac  Baby Don't Cry (Keep... 2000-02-26   wk2      82
#> 3 2 Pac  Baby Don't Cry (Keep... 2000-02-26   wk3      72
#> 4 2 Pac  Baby Don't Cry (Keep... 2000-02-26   wk4      77
#> 5 2 Pac  Baby Don't Cry (Keep... 2000-02-26   wk5      87
#> 6 2 Pac  Baby Don't Cry (Keep... 2000-02-26   wk6      94
#> # ℹ 5,301 more rows
…
这个数据现在是整洁的了，但我们可以通过使用 mutate() 和 readr::parse_number() 将 week 的值从字符字符串转换为数字，来使未来的计算更容易一些。parse_number() 是一个方便的函数，它会从字符串中提取第一个数字，忽略所有其他文本。

billboard_longer <- billboard |> 
  pivot_longer(
    cols = starts_with("wk"), 
    names_to = "week", 
    values_to = "rank",
    values_drop_na = TRUE
  ) |> 
  mutate(
    week = parse_number(week)
  )
billboard_longer
#> # A tibble: 5,307 × 5
#>   artist track                   date.entered  week  rank
#>   <chr>  <chr>                   <date>       <dbl> <dbl>
#> 1 2 Pac  Baby Don't Cry (Keep... 2000-02-26       1    87
#> 2 2 Pac  Baby Don't Cry (Keep... 2000-02-26       2    82
#> 3 2 Pac  Baby Don't Cry (Keep... 2000-02-26       3    72
#> 4 2 Pac  Baby Don't Cry (Keep... 2000-02-26       4    77
#> 5 2 Pac  Baby Don't Cry (Keep... 2000-02-26       5    87
#> 6 2 Pac  Baby Don't Cry (Keep... 2000-02-26       6    94
#> # ℹ 5,301 more rows
…
Figure 5.5: 值的数量被保留（不重复），但被逐行展开。

5.3.3 列名中包含多个变量

一个更具挑战性的情况是，当你的列名中塞入了多条信息，而你希望将这些信息存储在不同的新变量中时。例如，拿 who2 数据集来说，这是你上面看到的 table1 及其他表格的来源：

who2
#> # A tibble: 7,240 × 58
#>   country      year sp_m_014 sp_m_1524 sp_m_2534 sp_m_3544 sp_m_4554
#>   <chr>       <dbl>    <dbl>     <dbl>     <dbl>     <dbl>     <dbl>
#> 1 Afghanistan  1980       NA        NA        NA        NA        NA
#> 2 Afghanistan  1981       NA        NA        NA        NA        NA
#> 3 Afghanistan  1982       NA        NA        NA        NA        NA
#> 4 Afghanistan  1983       NA        NA        NA        NA        NA
#> 5 Afghanistan  1984       NA        NA        NA        NA        NA
#> 6 Afghanistan  1985       NA        NA        NA        NA        NA
#> # ℹ 7,234 more rows
#> # ℹ 51 more variables: sp_m_5564 <dbl>, sp_m_65 <dbl>, sp_f_014 <dbl>, …

这个由世界卫生组织收集的数据集记录了关于结核病诊断的信息。有两列已经是变量并且很容易解释：country 和 year。它们后面跟着 56 列，如 sp_m_014、ep_m_4554 和 rel_m_3544。如果你盯着这些列足够长的时间，你会注意到一个模式。每个列名都由三部分组成，用 _ 分隔。第一部分，sp/rel/ep，描述了诊断所用的方法；第二部分，m/f 是 gender (性别，在这个数据集中编码为二元变量)；第三部分，014/1524/2534/3544/4554/5564/65 是 age (年龄) 范围 (例如，014 代表 0-14 岁)。

所以在这种情况下，我们在 who2 中记录了六条信息：国家和年份 (已经是列)；诊断方法、性别类别和年龄范围类别 (包含在其他列名中)；以及该类别中的患者计数 (单元格值)。为了将这六条信息组织在六个独立的列中，我们使用 pivot_longer()，并为 names_to 提供一个列名向量，为 names_sep 提供将原始变量名拆分成块的指令，以及为 values_to 提供一个列名：

who2 |> 
  pivot_longer(
    cols = !(country:year),
    names_to = c("diagnosis", "gender", "age"), 
    names_sep = "_",
    values_to = "count"
  )
#> # A tibble: 405,440 × 6
#>   country      year diagnosis gender age   count
#>   <chr>       <dbl> <chr>     <chr>  <chr> <dbl>
#> 1 Afghanistan  1980 sp        m      014      NA
#> 2 Afghanistan  1980 sp        m      1524     NA
#> 3 Afghanistan  1980 sp        m      2534     NA
#> 4 Afghanistan  1980 sp        m      3544     NA
#> 5 Afghanistan  1980 sp        m      4554     NA
#> 6 Afghanistan  1980 sp        m      5564     NA
#> # ℹ 405,434 more rows
…
这个数据集包含了五个家庭的数据，以及最多两个孩子的姓名和出生日期。这个数据集中的新挑战是，列名包含了两个变量的名称 (dob、name) 和另一个变量 (child，值为 1 或 2) 的值。为了解决这个问题，我们再次需要向 names_to 提供一个向量，但这次我们使用特殊的 ".value" 指示符；这不是一个变量名，而是一个告诉 pivot_longer() 做些不同事情的唯一值。这会覆盖通常的 values_to 参数，转而使用被转换列名的第一部分作为输出中的变量名。

household |> 
  pivot_longer(
    cols = !family, 
    names_to = c(".value", "child"), 
    names_sep = "_", 
    values_drop_na = TRUE
  )
#> # A tibble: 9 × 4
#>   family child  dob        name 
#>    <int> <chr>  <date>     <chr>
#> 1      1 child1 1998-11-26 Susan
#> 2      1 child2 2000-01-29 Jose 
#> 3      2 child1 1996-06-22 Mark 
#> 4      3 child1 2002-07-11 Sam  
#> 5      3 child2 2004-04-05 Seth 
#> 6      4 child1 2004-10-10 Craig
#> # ℹ 3 more rows
…
Figure 5.7: 使用 names_to = c(".value", "num") 进行转换会将列名分成两个部分：第一部分决定输出列的名称（x 或 y），第二部分决定 num 列的值。

5.4 加宽数据

到目前为止，我们已经使用 pivot_longer() 来解决一类常见的问题，即值最终出现在列名中。接下来，我们将转向 pivot_wider()，它通过增加列数和减少行数来使数据集变宽，并在一个观测分布在多行时提供帮助。这种情况在现实世界中似乎不那么常见，但在处理政府数据时似乎经常出现。

我们将从查看 cms_patient_experience 开始，这是一个来自医疗保险和医疗补助服务中心的数据集，收集了关于患者体验的数据：

cms_patient_experience
#> # A tibble: 500 × 5
#>   org_pac_id org_nm                     measure_cd   measure_title   prf_rate
#>   <chr>      <chr>                      <chr>        <chr>              <dbl>
#> 1 0446157747 USC CARE MEDICAL GROUP INC CAHPS_GRP_1  CAHPS for MIPS…       63
#> 2 0446157747 USC CARE MEDICAL GROUP INC CAHPS_GRP_2  CAHPS for MIPS…       87
#> 3 0446157747 USC CARE MEDICAL GROUP INC CAHPS_GRP_3  CAHPS for MIPS…       86
#> 4 0446157747 USC CARE MEDICAL GROUP INC CAHPS_GRP_5  CAHPS for MIPS…       57
#> 5 0446157747 USC CARE MEDICAL GROUP INC CAHPS_GRP_8  CAHPS for MIPS…       85
#> 6 0446157747 USC CARE MEDICAL GROUP INC CAHPS_GRP_12 CAHPS for MIPS…       24
#> # ℹ 494 more rows
…
这两列都不会成为特别好的变量名：measure_cd 没有暗示变量的含义，而 measure_title 是一个包含空格的长句子。我们现在将使用 measure_cd 作为新列名的来源，但在实际分析中，你可能想要创建既简短又有意义的自己的变量名。

pivot_wider() 的接口与 pivot_longer() 相反：我们不是选择新的列名，而是需要提供定义值的现有列 (values_from) 和定义列名的列 (names_from)：

cms_patient_experience |> 
  pivot_wider(
    names_from = measure_cd,
    values_from = prf_rate
  )
#> # A tibble: 500 × 9
#>   org_pac_id org_nm                   measure_title   CAHPS_GRP_1 CAHPS_GRP_2
#>   <chr>      <chr>                    <chr>                 <dbl>       <dbl>
#> 1 0446157747 USC CARE MEDICAL GROUP … CAHPS for MIPS…          63          NA
#> 2 0446157747 USC CARE MEDICAL GROUP … CAHPS for MIPS…          NA          87
#> 3 0446157747 USC CARE MEDICAL GROUP … CAHPS for MIPS…          NA          NA
#> 4 0446157747 USC CARE MEDICAL GROUP … CAHPS for MIPS…          NA          NA
#> 5 0446157747 USC CARE MEDICAL GROUP … CAHPS for MIPS…          NA          NA
#> 6 0446157747 USC CARE MEDICAL GROUP … CAHPS for MIPS…          NA          NA
#> # ℹ 494 more rows
#> # ℹ 4 more variables: CAHPS_GRP_3 <dbl>, CAHPS_GRP_5 <dbl>, …

输出看起来不太对；我们似乎每个组织仍然有多行。这是因为，我们还需要告诉 pivot_wider() 哪个或哪些列的值唯一标识每一行；在这种情况下，是那些以 "org" 开头的变量：

cms_patient_experience |> 
  pivot_wider(
    id_cols = starts_with("org"),
    names_from = measure_cd,
    values_from = prf_rate
  )
#> # A tibble: 95 × 8
#>   org_pac_id org_nm           CAHPS_GRP_1 CAHPS_GRP_2 CAHPS_GRP_3 CAHPS_GRP_5
#>   <chr>      <chr>                  <dbl>       <dbl>       <dbl>       <dbl>
#> 1 0446157747 USC CARE MEDICA…          63          87          86          57
#> 2 0446162697 ASSOCIATION OF …          59          85          83          63
#> 3 0547164295 BEAVER MEDICAL …          49          NA          75          44
#> 4 0749333730 CAPE PHYSICIANS…          67          84          85          65
#> 5 0840104360 ALLIANCE PHYSIC…          66          87          87          64
#> 6 0840109864 REX HOSPITAL INC          73          87          84          67
#> # ℹ 89 more rows
#> # ℹ 2 more variables: CAHPS_GRP_8 <dbl>, CAHPS_GRP_12 <dbl>
…
