1 Data visualization – R 数据科学 2e （双语）
…
Tabular data is a set of values, each associated with a variable and an observation. Tabular data is tidy if each value is placed in its own “cell”, each variable in its own column, and each observation in its own row.

表格数据 (tabular data) 是一组值，每个值都与一个变量和一个观测相关联。如果每个值都放在自己的“单元格”中，每个变量都在自己的列中，每个观测都在自己的行中，那么表格数据就是整洁 (tidy) 的。

In this context, a variable refers to an attribute of all the penguins, and an observation refers to all the attributes of a single penguin.

在此背景下，一个变量指的是所有企鹅的一个属性，而一个观测指的是一只企鹅的所有属性。

Type the name of the data frame in the console and R will print a preview of its contents. Note that it says tibble on top of this preview. In the tidyverse, we use special data frames called tibbles that you will learn more about soon.

在控制台中输入数据框的名称，R 将打印其内容的预览。注意，在这个预览的顶部显示着 tibble。在 tidyverse 中，我们使用一种特殊的数据框，称为 tibbles，你很快就会学到更多关于它的知识。

penguins
#> # A tibble: 344 × 8
#>   species island    bill_length_mm bill_depth_mm flipper_length_mm
#>   <fct>   <fct>              <dbl>         <dbl>             <int>
#> 1 Adelie  Torgersen           39.1          18.7               181
#> 2 Adelie  Torgersen           39.5          17.4               186
#> 3 Adelie  Torgersen           40.3          18                 195
#> 4 Adelie  Torgersen           NA            NA                  NA
#> 5 Adelie  Torgersen           36.7          19.3               193
#> 6 Adelie  Torgersen           39.3          20.6               190
#> # ℹ 338 more rows
#> # ℹ 3 more variables: body_mass_g <int>, sex <fct>, year <int>
…
