7 Data import – R 数据科学 2e
…
Sometimes your data is split across multiple files instead of being contained in a single file.

有时你的数据分散在多个文件中，而不是包含在单个文件中。

For example, you might have sales data for multiple months, with each month’s data in a separate file: 01-sales.csv for January, 02-sales.csv for February, and 03-sales.csv for March.

例如，你可能有多個月的銷售數據，每個月的數據都存放在一個單獨的文件中：一月是 01-sales.csv，二月是 02-sales.csv，三月是 03-sales.csv。

With read_csv() you can read these data in at once and stack them on top of each other in a single data frame.

使用 read_csv()，你可以一次性读取这些数据，并将它们堆叠在一个数据框中。

sales_files <- c("data/01-sales.csv", "data/02-sales.csv", "data/03-sales.csv")
read_csv(sales_files, id = "file")
#> # A tibble: 19 × 6
#>   file              month    year brand  item     n
#>   <chr>             <chr>   <dbl> <dbl> <dbl> <dbl>
#> 1 data/01-sales.csv January  2019     1  1234     3
#> 2 data/01-sales.csv January  2019     1  8721     9
#> 3 data/01-sales.csv January  2019     1  1822     2
#> 4 data/01-sales.csv January  2019     2  3333     1
#> 5 data/01-sales.csv January  2019     2  2156     9
#> 6 data/01-sales.csv January  2019     2  3987     6
#> # ℹ 13 more rows
…
