10 探索性数据分析 – R 数据科学 2e （双语）
…
图中每个圆圈的大小显示了在每个值组合处有多少观测值。协变将表现为特定 x 值和特定 y 值之间的强相关性。

探索这些变量之间关系的另一种方法是使用 dplyr 计算计数：

diamonds |> 
  count(color, cut)

# A tibble: 35 × 3
   color cut           n
   <ord> <ord>     <int>
 1 D     Fair        163
 2 D     Good        662
 3 D     Very Good  1513
 4 D     Premium    1603
 5 D     Ideal      2834
 6 E     Fair        224
 7 E     Good        933
 8 E     Very Good  2400
 9 E     Premium    2337
10 E     Ideal      3903
# ℹ 25 more rows
…
