16 Factors – R 数据科学 2e
…
For the rest of this chapter, we’re going to use forcats::gss_cat.

在本章的其余部分，我们将使用 forcats::gss_cat 数据集。

It’s a sample of data from the General Social Survey, a long-running US survey conducted by the independent research organization NORC at the University of Chicago.

它来自 General Social Survey 的数据样本，这是由芝加哥大学的独立研究机构 NORC 进行的一项长期美国调查。

The survey has thousands of questions, so in gss_cat Hadley selected a handful that will illustrate some common challenges you’ll encounter when working with factors.

该调查包含数千个问题，因此在 gss_cat 中，Hadley 选择了一些能够说明你在使用因子时会遇到的一些常见挑战的问题。

gss_cat
#> # A tibble: 21,483 × 9
#>    year marital         age race  rincome        partyid           
#>   <int> <fct>         <int> <fct> <fct>          <fct>             
#> 1  2000 Never married    26 White $8000 to 9999  Ind,near rep      
#> 2  2000 Divorced         48 White $8000 to 9999  Not str republican
#> 3  2000 Widowed          67 White Not applicable Independent       
#> 4  2000 Never married    39 White Not applicable Ind,near rep      
#> 5  2000 Divorced         25 White Not applicable Not str democrat  
#> 6  2000 Married          25 White $20000 - 24999 Strong democrat   
#> # ℹ 21,477 more rows
#> # ℹ 3 more variables: relig <fct>, denom <fct>, tvhours <int>
…
The most general and powerful tool is fct_recode().

最通用和最强大的工具是 fct_recode()。

It allows you to recode, or change, the value of each level.

它允许你重新编码 (recode)，或更改每个水平的值。

For example, take the partyid variable from the gss_cat data frame:

例如，以 gss_cat 数据框中的 partyid 变量为例：

gss_cat |> count(partyid)
#> # A tibble: 10 × 2
#>   partyid                n
#>   <fct>              <int>
#> 1 No answer            154
#> 2 Don't know             1
#> 3 Other party          393
#> 4 Strong republican   2314
#> 5 Not str republican  3032
#> 6 Ind,near rep        1791
#> # ℹ 4 more rows
…
像 tidyverse 中大多数重命名和重新编码的函数一样，新值在左边，旧值在右边：

gss_cat |>
  mutate(
    partyid = fct_recode(partyid,
      "Republican, strong"    = "Strong republican",
      "Republican, weak"      = "Not str republican",
      "Independent, near rep" = "Ind,near rep",
      "Independent, near dem" = "Ind,near dem",
      "Democrat, weak"        = "Not str democrat",
      "Democrat, strong"      = "Strong democrat"
    )
  ) |>
  count(partyid)
#> # A tibble: 10 × 2
#>   partyid                   n
#>   <fct>                 <int>
#> 1 No answer               154
#> 2 Don't know                1
#> 3 Other party             393
#> 4 Republican, strong     2314
#> 5 Republican, weak       3032
#> 6 Independent, near rep  1791
#> # ℹ 4 more rows
…
In this case it’s not very helpful: it is true that the majority of Americans in this survey are Protestant, but we’d probably like to see some more details!

在这种情况下，它不是很有用：确实，这项调查中的大多数美国人是新教徒 (Protestant)，但我们可能想看到更多细节！

Instead, we can use the fct_lump_n() to specify that we want exactly 10 groups:

相反，我们可以使用 fct_lump_n() 来指定我们想要正好 10 个组：

gss_cat |>
  mutate(relig = fct_lump_n(relig, n = 10)) |>
  count(relig, sort = TRUE)
#> # A tibble: 10 × 2
#>   relig          n
#>   <fct>      <int>
#> 1 Protestant 10846
#> 2 Catholic    5124
#> 3 None        3523
#> 4 Christian    689
#> 5 Other        458
#> 6 Jewish       388
#> # ℹ 4 more rows
…
