26 Iteration – R 数据科学 2e
…
There’s currently no way to do this with across()[^4], but it’s relatively straightforward with pivot_longer():

目前没有办法用 across() 做到这一点4，但用 pivot_longer() 就相对直接了：

df_long <- df_paired |> 
  pivot_longer(
    everything(), 
    names_to = c("group", ".value"), 
    names_sep = "_"
  )
df_long
#> # A tibble: 40 × 3
#>   group    val   wts
#>   <chr>  <dbl> <dbl>
#> 1 a      0.715 0.518
#> 2 b     -0.709 0.691
#> 3 c      0.718 0.216
#> 4 d     -0.217 0.733
#> 5 a     -1.09  0.979
#> 6 b     -0.209 0.675
#> # ℹ 34 more rows
…
files <- list(
  readxl::read_excel("data/gapminder/1952.xlsx"),
  readxl::read_excel("data/gapminder/1957.xlsx"),
  readxl::read_excel("data/gapminder/1962.xlsx"),
  ...,
  readxl::read_excel("data/gapminder/2007.xlsx")
)

Now that you have these data frames in a list, how do you get one out? You can use files[[i]] to extract the i<sup>th</sup> element:

现在你已经将这些数据框放在一个列表中了，你该如何取出一个呢？你可以使用 files[[i]] 来提取第 i<sup>th</sup> 个元素：

files[[3]]
#> # A tibble: 142 × 5
#>   country     continent lifeExp      pop gdpPercap
#>   <chr>       <chr>       <dbl>    <dbl>     <dbl>
#> 1 Afghanistan Asia         32.0 10267083      853.
#> 2 Albania     Europe       64.8  1728137     2313.
#> 3 Algeria     Africa       48.3 11000948     2551.
#> 4 Angola      Africa       34    4826015     4269.
#> 5 Argentina   Americas     65.1 21283783     7133.
#> 6 Australia   Oceania      70.9 10794968    12217.
#> # ℹ 136 more rows
…
So we can use map() to get a list of 12 data frames:

所以我们可以使用 map() 来得到一个包含 12 个数据框的列表：

files <- map(paths, readxl::read_excel)
length(files)
#> [1] 12

files[[1]]
#> # A tibble: 142 × 5
#>   country     continent lifeExp      pop gdpPercap
#>   <chr>       <chr>       <dbl>    <dbl>     <dbl>
#> 1 Afghanistan Asia         28.8  8425333      779.
#> 2 Albania     Europe       55.2  1282697     1601.
#> 3 Algeria     Africa       43.1  9279525     2449.
#> 4 Angola      Africa       30.0  4232095     3521.
#> 5 Argentina   Americas     62.5 17876956     5911.
#> 6 Australia   Oceania      69.1  8691212    10040.
#> # ℹ 136 more rows

(This is another data structure that doesn’t display particularly compactly with str() so you might want to load it into RStudio and inspect it with View()).

（这是另一个用 str() 显示不够紧凑的数据结构，所以你可能想将它加载到 RStudio 中并用 View() 来检查它）。

Now we can use purrr::list_rbind() to combine that list of data frames into a single data frame:

现在我们可以使用 purrr::list_rbind() 将那个数据框列表合并成一个单一的数据框：

list_rbind(files)
#> # A tibble: 1,704 × 5
#>   country     continent lifeExp      pop gdpPercap
#>   <chr>       <chr>       <dbl>    <dbl>     <dbl>
#> 1 Afghanistan Asia         28.8  8425333      779.
#> 2 Albania     Europe       55.2  1282697     1601.
#> 3 Algeria     Africa       43.1  9279525     2449.
#> 4 Angola      Africa       30.0  4232095     3521.
#> 5 Argentina   Americas     62.5 17876956     5911.
#> 6 Australia   Oceania      69.1  8691212    10040.
#> # ℹ 1,698 more rows
…
或者我们可以在一个管道中一次性完成这两个步骤：

paths |> 
  map(readxl::read_excel) |> 
  list_rbind()

What if we want to pass in extra arguments to read_excel()? We use the same technique that we used with across(). For example, it’s often useful to peek at the first few rows of the data with n_max = 1:

如果我们想给 read_excel() 传递额外的参数怎么办？我们使用与 across() 相同的技术。例如，用 n_max = 1 来查看数据的前几行通常很有用：

paths |> 
  map(\(path) readxl::read_excel(path, n_max = 1)) |> 
  list_rbind()
#> # A tibble: 12 × 5
#>   country     continent lifeExp      pop gdpPercap
#>   <chr>       <chr>       <dbl>    <dbl>     <dbl>
#> 1 Afghanistan Asia         28.8  8425333      779.
#> 2 Afghanistan Asia         30.3  9240934      821.
#> 3 Afghanistan Asia         32.0 10267083      853.
#> 4 Afghanistan Asia         34.0 11537966      836.
#> 5 Afghanistan Asia         36.1 13079460      740.
#> 6 Afghanistan Asia         38.4 14880372      786.
#> # ℹ 6 more rows
…
files <- list(
  "1952.xlsx" = readxl::read_excel("data/gapminder/1952.xlsx"),
  "1957.xlsx" = readxl::read_excel("data/gapminder/1957.xlsx"),
  "1962.xlsx" = readxl::read_excel("data/gapminder/1962.xlsx"),
  ...,
  "2007.xlsx" = readxl::read_excel("data/gapminder/2007.xlsx")
)

You can also use [[ to extract elements by name:

你也可以使用 [[ 按名称提取元素：

files[["1962.xlsx"]]
#> # A tibble: 142 × 5
#>   country     continent lifeExp      pop gdpPercap
#>   <chr>       <chr>       <dbl>    <dbl>     <dbl>
#> 1 Afghanistan Asia         32.0 10267083      853.
#> 2 Albania     Europe       64.8  1728137     2313.
#> 3 Algeria     Africa       48.3 11000948     2551.
#> 4 Angola      Africa       34    4826015     4269.
#> 5 Argentina   Americas     65.1 21283783     7133.
#> 6 Australia   Oceania      70.9 10794968    12217.
#> # ℹ 136 more rows

Then we use the names_to argument to list_rbind() to tell it to save the names into a new column called year then use readr::parse_number() to extract the number from the string.

然后我们使用 list_rbind() 的 names_to 参数，告诉它将名称保存到一个名为 year 的新列中，然后使用 readr::parse_number() 从字符串中提取数字。

paths |> 
  set_names(basename) |> 
  map(readxl::read_excel) |> 
  list_rbind(names_to = "year") |> 
  mutate(year = parse_number(year))
#> # A tibble: 1,704 × 6
#>    year country     continent lifeExp      pop gdpPercap
#>   <dbl> <chr>       <chr>       <dbl>    <dbl>     <dbl>
#> 1  1952 Afghanistan Asia         28.8  8425333      779.
#> 2  1952 Albania     Europe       55.2  1282697     1601.
#> 3  1952 Algeria     Africa       43.1  9279525     2449.
#> 4  1952 Angola      Africa       30.0  4232095     3521.
#> 5  1952 Argentina   Americas     62.5 17876956     5911.
#> 6  1952 Australia   Oceania      69.1  8691212    10040.
#> # ℹ 1,698 more rows

In more complicated cases, there might be other variables stored in the directory name, or maybe the file name contains multiple bits of data. In that case, use set_names() (without any arguments) to record the full path, and then use tidyr::separate_wider_delim() and friends to turn them into useful columns.

在更复杂的情况下，目录名中可能存储了其他变量，或者文件名可能包含多个数据片段。在这种情况下，使用 set_names()（不带任何参数）来记录完整路径，然后使用 tidyr::separate_wider_delim() 及其相关函数将它们转换成有用的列。

paths |> 
  set_names() |> 
  map(readxl::read_excel) |> 
  list_rbind(names_to = "year") |> 
  separate_wider_delim(year, delim = "/", names = c(NA, "dir", "file")) |> 
  separate_wider_delim(file, delim = ".", names = c("file", "ext"))
#> # A tibble: 1,704 × 8
#>   dir       file  ext   country     continent lifeExp      pop gdpPercap
#>   <chr>     <chr> <chr> <chr>       <chr>       <dbl>    <dbl>     <dbl>
#> 1 gapminder 1952  xlsx  Afghanistan Asia         28.8  8425333      779.
#> 2 gapminder 1952  xlsx  Albania     Europe       55.2  1282697     1601.
#> 3 gapminder 1952  xlsx  Algeria     Africa       43.1  9279525     2449.
#> 4 gapminder 1952  xlsx  Angola      Africa       30.0  4232095     3521.
#> 5 gapminder 1952  xlsx  Argentina   Americas     62.5 17876956     5911.
#> 6 gapminder 1952  xlsx  Australia   Oceania      69.1  8691212    10040.
#> # ℹ 1,698 more rows
…
You can then apply this function to all of the files, and maybe do some pivoting to make it easier to see where the differences are. For example, this makes it easy to verify that the gapminder spreadsheets that we’ve been working with are all quite homogeneous:

然后，你可以将此函数应用于所有文件，并可能进行一些透视操作，以便更容易地查看差异所在。例如，这可以轻松验证我们一直在使用的 gapminder 电子表格都非常同质：

files |> 
  map(df_types) |> 
  list_rbind(names_to = "file_name") |> 
  select(-n_miss) |> 
  pivot_wider(names_from = col_name, values_from = col_type)
#> # A tibble: 12 × 6
#>   file_name country   continent lifeExp pop    gdpPercap
#>   <chr>     <chr>     <chr>     <chr>   <chr>  <chr>    
#> 1 1952.xlsx character character double  double double   
#> 2 1957.xlsx character character double  double double   
#> 3 1962.xlsx character character double  double double   
#> 4 1967.xlsx character character double  double double   
#> 5 1972.xlsx character character double  double double   
#> 6 1977.xlsx character character double  double double   
#> # ℹ 6 more rows
…
con <- DBI::dbConnect(duckdb::duckdb())
duckdb::duckdb_read_csv(con, "gapminder", paths)

This would work well here, but we don’t have csv files, instead we have excel spreadsheets. So we’re going to have to do it “by hand”. Learning to do it by hand will also help you when you have a bunch of csvs and the database that you’re working with doesn’t have one function that will load them all in.

这在这里会很有效，但我们没有 csv 文件，而是 excel 电子表格。所以我们必须“手动”来做。当你有一堆 csv 文件，而你正在使用的数据库没有一个能将它们全部加载的函数时，学会手动操作也会对你有所帮助。

We need to start by creating a table that we will fill in with data. The easiest way to do this is by creating a template, a dummy data frame that contains all the columns we want, but only a sampling of the data. For the gapminder data, we can make that template by reading a single file and adding the year to it:

我们需要从创建一个我们将用数据填充的表开始。最简单的方法是创建一个模板，一个包含我们想要的所有列但只有少量示例数据的虚拟数据框。对于 gapminder 数据，我们可以通过读取单个文件并向其添加年份来制作该模板：

template <- readxl::read_excel(paths[[1]])
template$year <- 1952
template
#> # A tibble: 142 × 6
#>   country     continent lifeExp      pop gdpPercap  year
#>   <chr>       <chr>       <dbl>    <dbl>     <dbl> <dbl>
#> 1 Afghanistan Asia         28.8  8425333      779.  1952
#> 2 Albania     Europe       55.2  1282697     1601.  1952
#> 3 Algeria     Africa       43.1  9279525     2449.  1952
#> 4 Angola      Africa       30.0  4232095     3521.  1952
#> 5 Argentina   Americas     62.5 17876956     5911.  1952
#> 6 Australia   Oceania      69.1  8691212    10040.  1952
#> # ℹ 136 more rows
…
26.4.2 Writing csv files

The same basic principle applies if we want to write multiple csv files, one for each group. Let’s imagine that we want to take the ggplot2::diamonds data and save one csv file for each clarity. First we need to make those individual datasets. There are many ways you could do that, but there’s one way we particularly like: group_nest().

如果我们想为每个组别写入多个 csv 文件，同样的基本原则也适用。假设我们想要获取 ggplot2::diamonds 数据，并为每个 clarity 保存一个 csv 文件。首先，我们需要创建这些独立的数据集。有很多方法可以做到这一点，但我们特别喜欢一种方法：group_nest()。

by_clarity <- diamonds |> 
  group_nest(clarity)

by_clarity
#> # A tibble: 8 × 2
#>   clarity               data
#>   <ord>   <list<tibble[,9]>>
#> 1 I1               [741 × 9]
#> 2 SI2            [9,194 × 9]
#> 3 SI1           [13,065 × 9]
#> 4 VS2           [12,258 × 9]
#> 5 VS1            [8,171 × 9]
#> 6 VVS2           [5,066 × 9]
#> # ℹ 2 more rows

This gives us a new tibble with eight rows and two columns. clarity is our grouping variable and data is a list-column containing one tibble for each unique value of clarity:

这给了我们一个有八行两列的新 tibble。clarity 是我们的分组变量，data 是一个列表列 (list-column)，其中包含对应 clarity 每个唯一值的一个 tibble：

by_clarity$data[[1]]
#> # A tibble: 741 × 9
#>   carat cut       color depth table price     x     y     z
#>   <dbl> <ord>     <ord> <dbl> <dbl> <int> <dbl> <dbl> <dbl>
#> 1  0.32 Premium   E      60.9    58   345  4.38  4.42  2.68
#> 2  1.17 Very Good J      60.2    61  2774  6.83  6.9   4.13
#> 3  1.01 Premium   F      61.8    60  2781  6.39  6.36  3.94
#> 4  1.01 Fair      E      64.5    58  2788  6.29  6.21  4.03
#> 5  0.96 Ideal     F      60.7    55  2801  6.37  6.41  3.88
#> 6  1.04 Premium   G      62.2    58  2801  6.46  6.41  4   
#> # ℹ 735 more rows

While we’re here, let’s create a column that gives the name of output file, using mutate() and str_glue():

趁此机会，让我们使用 mutate() 和 str_glue() 创建一个包含输出文件名的列：

by_clarity <- by_clarity |> 
  mutate(path = str_glue("diamonds-{clarity}.csv"))

by_clarity
#> # A tibble: 8 × 3
#>   clarity               data path             
#>   <ord>   <list<tibble[,9]>> <glue>           
#> 1 I1               [741 × 9] diamonds-I1.csv  
#> 2 SI2            [9,194 × 9] diamonds-SI2.csv 
#> 3 SI1           [13,065 × 9] diamonds-SI1.csv 
#> 4 VS2           [12,258 × 9] diamonds-VS2.csv 
#> 5 VS1            [8,171 × 9] diamonds-VS1.csv 
#> 6 VVS2           [5,066 × 9] diamonds-VVS2.csv
#> # ℹ 2 more rows
…
