19 Joins – R 数据科学 2e
…
每个连接都涉及一对键：主键 (primary key) 和外键 (foreign key)。

A primary key is a variable or set of variables that uniquely identifies each observation.
主键 (primary key) 是一个或一组唯一标识每个观测值的变量。

When more than one variable is needed, the key is called a compound key. For example, in nycflights13:

当需要多个变量时，该键称为 复合键 (compound key)。例如，在 nycflights13 中：

airlines records two pieces of data about each airline: its carrier code and its full name. You can identify an airline with its two letter carrier code, making carrier the primary key.
airlines 记录了每家航空公司的两部分数据：其承运人代码 (carrier code) 和其全名。你可以用其两位字母的承运人代码来识别一家航空公司，因此 carrier 是主键。

airlines
#> # A tibble: 16 × 2
#>   carrier name                    
#>   <chr>   <chr>                   
#> 1 9E      Endeavor Air Inc.       
#> 2 AA      American Airlines Inc.  
#> 3 AS      Alaska Airlines Inc.    
#> 4 B6      JetBlue Airways         
#> 5 DL      Delta Air Lines Inc.    
#> 6 EV      ExpressJet Airlines Inc.
#> # ℹ 10 more rows

airports records data about each airport. You can identify each airport by its three letter airport code, making faa the primary key.
airports 记录了每个机场的数据。你可以用其三位字母的机场代码来识别每个机场，因此 faa 是主键。

airports
#> # A tibble: 1,458 × 8
#>   faa   name                            lat   lon   alt    tz dst  
#>   <chr> <chr>                         <dbl> <dbl> <dbl> <dbl> <chr>
#> 1 04G   Lansdowne Airport              41.1 -80.6  1044    -5 A    
#> 2 06A   Moton Field Municipal Airport  32.5 -85.7   264    -6 A    
#> 3 06C   Schaumburg Regional            42.0 -88.1   801    -6 A    
#> 4 06N   Randall Airport                41.4 -74.4   523    -5 A    
#> 5 09J   Jekyll Island Airport          31.1 -81.4    11    -5 A    
#> 6 0A9   Elizabethton Municipal Airpo…  36.4 -82.2  1593    -5 A    
#> # ℹ 1,452 more rows
#> # ℹ 1 more variable: tzone <chr>

planes records data about each plane. You can identify a plane by its tail number, making tailnum the primary key.
planes 记录了每架飞机的数据。你可以用其尾号 (tail number) 来识别一架飞机，因此 tailnum 是主键。

planes
#> # A tibble: 3,322 × 9
#>   tailnum  year type              manufacturer    model     engines
#>   <chr>   <int> <chr>             <chr>           <chr>       <int>
#> 1 N10156   2004 Fixed wing multi… EMBRAER         EMB-145XR       2
#> 2 N102UW   1998 Fixed wing multi… AIRBUS INDUSTR… A320-214        2
#> 3 N103US   1999 Fixed wing multi… AIRBUS INDUSTR… A320-214        2
#> 4 N104UW   1999 Fixed wing multi… AIRBUS INDUSTR… A320-214        2
#> 5 N10575   2002 Fixed wing multi… EMBRAER         EMB-145LR       2
#> 6 N105UW   1999 Fixed wing multi… AIRBUS INDUSTR… A320-214        2
#> # ℹ 3,316 more rows
#> # ℹ 3 more variables: seats <int>, speed <int>, engine <chr>

weather records data about the weather at the origin airports. You can identify each observation by the combination of location and time, making origin and time_hour the compound primary key.
weather 记录了始发机场的天气数据。你可以通过位置和时间的组合来识别每个观测值，因此 origin 和 time_hour 是复合主键。

weather
#> # A tibble: 26,115 × 15
#>   origin  year month   day  hour  temp  dewp humid wind_dir
#>   <chr>  <int> <int> <int> <int> <dbl> <dbl> <dbl>    <dbl>
#> 1 EWR     2013     1     1     1  39.0  26.1  59.4      270
#> 2 EWR     2013     1     1     2  39.0  27.0  61.6      250
#> 3 EWR     2013     1     1     3  39.0  28.0  64.4      240
#> 4 EWR     2013     1     1     4  39.9  28.0  62.2      250
#> 5 EWR     2013     1     1     5  39.0  28.0  64.4      260
#> 6 EWR     2013     1     1     6  37.9  28.0  67.2      240
#> # ℹ 26,109 more rows
#> # ℹ 6 more variables: wind_speed <dbl>, wind_gust <dbl>, …
…
通过高度和纬度来识别一个机场显然是一个坏主意，而且通常来说，仅从数据本身无法判断一个变量组合是否能构成一个好的主键。

But for flights, the combination of time_hour, carrier, and flight seems reasonable because it would be really confusing for an airline and its customers if there were multiple flights with the same flight number in the air at the same time.

但对于航班来说，time_hour、carrier 和 flight 的组合似乎是合理的，因为如果同一时间有多架相同航班号的飞机在空中，对航空公司及其乘客来说会非常混乱。

That said, we might be better off introducing a simple numeric surrogate key using the row number:

话虽如此，我们最好还是使用行号引入一个简单的数字代理键 (surrogate key)：

flights2 <- flights |> 
  mutate(id = row_number(), .before = 1)
flights2
#> # A tibble: 336,776 × 20
#>      id  year month   day dep_time sched_dep_time dep_delay arr_time
#>   <int> <int> <int> <int>    <int>          <int>     <dbl>    <int>
#> 1     1  2013     1     1      517            515         2      830
#> 2     2  2013     1     1      533            529         4      850
#> 3     3  2013     1     1      542            540         2      923
#> 4     4  2013     1     1      544            545        -1     1004
#> 5     5  2013     1     1      554            600        -6      812
#> 6     6  2013     1     1      554            558        -4      740
#> # ℹ 336,770 more rows
#> # ℹ 12 more variables: sched_arr_time <int>, arr_delay <dbl>, …
…
A mutating join allows you to combine variables from two data frames: it first matches observations by their keys, then copies across variables from one data frame to the other.
修改连接 (mutating join) 允许你合并来自两个数据框的变量：它首先通过它们的键匹配观测值，然后将变量从一个数据框复制到另一个。

Like mutate(), the join functions add variables to the right, so if your dataset has many variables, you won’t see the new ones.

与 mutate() 类似，连接函数会将变量添加到右侧，所以如果你的数据集有很多变量，你将看不到新添加的变量。

For these examples, we’ll make it easier to see what’s going on by creating a narrower dataset with just six variables1:

对于这些例子，我们将创建一个只包含六个变量的更窄的数据集，以便更容易地看清楚发生了什么1：

flights2 <- flights |> 
  select(year, time_hour, origin, dest, tailnum, carrier)
flights2
#> # A tibble: 336,776 × 6
#>    year time_hour           origin dest  tailnum carrier
#>   <int> <dttm>              <chr>  <chr> <chr>   <chr>  
#> 1  2013 2013-01-01 05:00:00 EWR    IAH   N14228  UA     
#> 2  2013 2013-01-01 05:00:00 LGA    IAH   N24211  UA     
#> 3  2013 2013-01-01 05:00:00 JFK    MIA   N619AA  AA     
#> 4  2013 2013-01-01 05:00:00 JFK    BQN   N804JB  B6     
#> 5  2013 2013-01-01 06:00:00 LGA    ATL   N668DN  DL     
#> 6  2013 2013-01-01 05:00:00 EWR    ORD   N39463  UA     
#> # ℹ 336,770 more rows
…
It’s special because the output will always have the same rows as x, the data frame you’re joining to2.

它之所以特殊，是因为输出将始终与你所连接的数据框 x 具有相同的行2。

The primary use of left_join() is to add in additional metadata.
left_join() 的主要用途是添加额外的元数据 (metadata)。

For example, we can use left_join() to add the full airline name to the flights2 data:

例如，我们可以使用 left_join() 将完整的航空公司名称添加到 flights2 数据中：

flights2 |>
  left_join(airlines)
#> Joining with `by = join_by(carrier)`
#> # A tibble: 336,776 × 7
#>    year time_hour           origin dest  tailnum carrier name                
#>   <int> <dttm>              <chr>  <chr> <chr>   <chr>   <chr>               
#> 1  2013 2013-01-01 05:00:00 EWR    IAH   N14228  UA      United Air Lines In…
#> 2  2013 2013-01-01 05:00:00 LGA    IAH   N24211  UA      United Air Lines In…
#> 3  2013 2013-01-01 05:00:00 JFK    MIA   N619AA  AA      American Airlines I…
#> 4  2013 2013-01-01 05:00:00 JFK    BQN   N804JB  B6      JetBlue Airways     
#> 5  2013 2013-01-01 06:00:00 LGA    ATL   N668DN  DL      Delta Air Lines Inc.
#> 6  2013 2013-01-01 05:00:00 EWR    ORD   N39463  UA      United Air Lines In…
#> # ℹ 336,770 more rows

Or we could find out the temperature and wind speed when each plane departed:

或者我们可以找出每架飞机起飞时的温度和风速：

flights2 |> 
  left_join(weather |> select(origin, time_hour, temp, wind_speed))
#> Joining with `by = join_by(time_hour, origin)`
#> # A tibble: 336,776 × 8
#>    year time_hour           origin dest  tailnum carrier  temp wind_speed
#>   <int> <dttm>              <chr>  <chr> <chr>   <chr>   <dbl>      <dbl>
#> 1  2013 2013-01-01 05:00:00 EWR    IAH   N14228  UA       39.0       12.7
#> 2  2013 2013-01-01 05:00:00 LGA    IAH   N24211  UA       39.9       15.0
#> 3  2013 2013-01-01 05:00:00 JFK    MIA   N619AA  AA       39.0       15.0
#> 4  2013 2013-01-01 05:00:00 JFK    BQN   N804JB  B6       39.0       15.0
#> 5  2013 2013-01-01 06:00:00 LGA    ATL   N668DN  DL       39.9       16.1
#> 6  2013 2013-01-01 05:00:00 EWR    ORD   N39463  UA       39.0       12.7
#> # ℹ 336,770 more rows

Or what size of plane was flying:

或者当时飞的是什么尺寸的飞机：

flights2 |> 
  left_join(planes |> select(tailnum, type, engines, seats))
#> Joining with `by = join_by(tailnum)`
#> # A tibble: 336,776 × 9
#>    year time_hour           origin dest  tailnum carrier type                
#>   <int> <dttm>              <chr>  <chr> <chr>   <chr>   <chr>               
#> 1  2013 2013-01-01 05:00:00 EWR    IAH   N14228  UA      Fixed wing multi en…
#> 2  2013 2013-01-01 05:00:00 LGA    IAH   N24211  UA      Fixed wing multi en…
#> 3  2013 2013-01-01 05:00:00 JFK    MIA   N619AA  AA      Fixed wing multi en…
#> 4  2013 2013-01-01 05:00:00 JFK    BQN   N804JB  B6      Fixed wing multi en…
#> 5  2013 2013-01-01 06:00:00 LGA    ATL   N668DN  DL      Fixed wing multi en…
#> 6  2013 2013-01-01 05:00:00 EWR    ORD   N39463  UA      Fixed wing multi en…
#> # ℹ 336,770 more rows
#> # ℹ 2 more variables: engines <int>, seats <int>

When left_join() fails to find a match for a row in x, it fills in the new variables with missing values.

当 left_join() 无法为 x 中的某一行找到匹配项时，它会用缺失值填充新变量。

For example, there’s no information about the plane with tail number N3ALAA so the type, engines, and seats will be missing:

例如，没有关于尾号为 N3ALAA 的飞机的信息，所以 type、engines 和 seats 将会是缺失值：

flights2 |> 
  filter(tailnum == "N3ALAA") |> 
  left_join(planes |> select(tailnum, type, engines, seats))
#> Joining with `by = join_by(tailnum)`
#> # A tibble: 63 × 9
#>    year time_hour           origin dest  tailnum carrier type  engines seats
#>   <int> <dttm>              <chr>  <chr> <chr>   <chr>   <chr>   <int> <int>
#> 1  2013 2013-01-01 06:00:00 LGA    ORD   N3ALAA  AA      <NA>       NA    NA
#> 2  2013 2013-01-02 18:00:00 LGA    ORD   N3ALAA  AA      <NA>       NA    NA
#> 3  2013 2013-01-03 06:00:00 LGA    ORD   N3ALAA  AA      <NA>       NA    NA
#> 4  2013 2013-01-07 19:00:00 LGA    ORD   N3ALAA  AA      <NA>       NA    NA
#> 5  2013 2013-01-08 17:00:00 JFK    ORD   N3ALAA  AA      <NA>       NA    NA
#> 6  2013 2013-01-16 06:00:00 LGA    ORD   N3ALAA  AA      <NA>       NA    NA
#> # ℹ 57 more rows
…
默认情况下，left_join() 会将两个数据框中都出现的所有变量用作连接键，这被称为 自然 (natural) 连接。

This is a useful heuristic, but it doesn’t always work.

这是一个有用的启发式方法，但并不总是有效。

For example, what happens if we try to join flights2 with the complete planes dataset?

例如，如果我们尝试将 flights2 与完整的 planes 数据集连接，会发生什么？

flights2 |> 
  left_join(planes)
#> Joining with `by = join_by(year, tailnum)`
#> # A tibble: 336,776 × 13
#>    year time_hour           origin dest  tailnum carrier type  manufacturer
#>   <int> <dttm>              <chr>  <chr> <chr>   <chr>   <chr> <chr>       
#> 1  2013 2013-01-01 05:00:00 EWR    IAH   N14228  UA      <NA>  <NA>        
#> 2  2013 2013-01-01 05:00:00 LGA    IAH   N24211  UA      <NA>  <NA>        
#> 3  2013 2013-01-01 05:00:00 JFK    MIA   N619AA  AA      <NA>  <NA>        
#> 4  2013 2013-01-01 05:00:00 JFK    BQN   N804JB  B6      <NA>  <NA>        
#> 5  2013 2013-01-01 06:00:00 LGA    ATL   N668DN  DL      <NA>  <NA>        
#> 6  2013 2013-01-01 05:00:00 EWR    ORD   N39463  UA      <NA>  <NA>        
#> # ℹ 336,770 more rows
#> # ℹ 5 more variables: model <chr>, engines <int>, seats <int>, …

We get a lot of missing matches because our join is trying to use tailnum and year as a compound key.

我们得到了很多缺失的匹配，因为我们的连接试图使用 tailnum 和 year 作为复合键。

Both flights and planes have a year column but they mean different things: flights$year is the year the flight occurred and planes$year is the year the plane was built.
flights 和 planes 都有一个 year 列，但它们的含义不同：flights$year 是航班发生的年份，而 planes$year 是飞机制造的年份。

We only want to join on tailnum so we need to provide an explicit specification with join_by():

我们只想在 tailnum 上进行连接，所以我们需要使用 join_by() 提供一个明确的规范：

flights2 |> 
  left_join(planes, join_by(tailnum))
#> # A tibble: 336,776 × 14
#>   year.x time_hour           origin dest  tailnum carrier year.y
#>    <int> <dttm>              <chr>  <chr> <chr>   <chr>    <int>
#> 1   2013 2013-01-01 05:00:00 EWR    IAH   N14228  UA        1999
#> 2   2013 2013-01-01 05:00:00 LGA    IAH   N24211  UA        1998
#> 3   2013 2013-01-01 05:00:00 JFK    MIA   N619AA  AA        1990
#> 4   2013 2013-01-01 05:00:00 JFK    BQN   N804JB  B6        2012
#> 5   2013 2013-01-01 06:00:00 LGA    ATL   N668DN  DL        1991
#> 6   2013 2013-01-01 05:00:00 EWR    ORD   N39463  UA        2012
#> # ℹ 336,770 more rows
#> # ℹ 7 more variables: type <chr>, manufacturer <chr>, model <chr>, …
…
You’ll learn about non-equi joins in Section 19.5.

你将在 Section 19.5 中学习非等值连接。

Secondly, it’s how you specify different join keys in each table.

其次，这是你在每个表中指定不同连接键的方式。

For example, there are two ways to join the flight2 and airports table: either by dest or origin:

例如，有两种方法可以连接 flight2 和 airports 表：通过 dest 或 origin：

flights2 |> 
  left_join(airports, join_by(dest == faa))
#> # A tibble: 336,776 × 13
#>    year time_hour           origin dest  tailnum carrier name                
#>   <int> <dttm>              <chr>  <chr> <chr>   <chr>   <chr>               
#> 1  2013 2013-01-01 05:00:00 EWR    IAH   N14228  UA      George Bush Interco…
#> 2  2013 2013-01-01 05:00:00 LGA    IAH   N24211  UA      George Bush Interco…
#> 3  2013 2013-01-01 05:00:00 JFK    MIA   N619AA  AA      Miami Intl          
#> 4  2013 2013-01-01 05:00:00 JFK    BQN   N804JB  B6      <NA>                
#> 5  2013 2013-01-01 06:00:00 LGA    ATL   N668DN  DL      Hartsfield Jackson …
#> 6  2013 2013-01-01 05:00:00 EWR    ORD   N39463  UA      Chicago Ohare Intl  
#> # ℹ 336,770 more rows
#> # ℹ 6 more variables: lat <dbl>, lon <dbl>, alt <dbl>, tz <dbl>, …

flights2 |> 
  left_join(airports, join_by(origin == faa))
#> # A tibble: 336,776 × 13
#>    year time_hour           origin dest  tailnum carrier name               
#>   <int> <dttm>              <chr>  <chr> <chr>   <chr>   <chr>              
#> 1  2013 2013-01-01 05:00:00 EWR    IAH   N14228  UA      Newark Liberty Intl
#> 2  2013 2013-01-01 05:00:00 LGA    IAH   N24211  UA      La Guardia         
#> 3  2013 2013-01-01 05:00:00 JFK    MIA   N619AA  AA      John F Kennedy Intl
#> 4  2013 2013-01-01 05:00:00 JFK    BQN   N804JB  B6      John F Kennedy Intl
#> 5  2013 2013-01-01 06:00:00 LGA    ATL   N668DN  DL      La Guardia         
#> 6  2013 2013-01-01 05:00:00 EWR    ORD   N39463  UA      Newark Liberty Intl
#> # ℹ 336,770 more rows
#> # ℹ 6 more variables: lat <dbl>, lon <dbl>, alt <dbl>, tz <dbl>, …
…
Or just the destinations:

或者只显示目的地：

airports |> 
  semi_join(flights2, join_by(faa == dest))
#> # A tibble: 101 × 8
#>   faa   name                     lat    lon   alt    tz dst   tzone          
#>   <chr> <chr>                  <dbl>  <dbl> <dbl> <dbl> <chr> <chr>          
#> 1 ABQ   Albuquerque Internati…  35.0 -107.   5355    -7 A     America/Denver 
#> 2 ACK   Nantucket Mem           41.3  -70.1    48    -5 A     America/New_Yo…
#> 3 ALB   Albany Intl             42.7  -73.8   285    -5 A     America/New_Yo…
#> 4 ANC   Ted Stevens Anchorage…  61.2 -150.    152    -9 A     America/Anchor…
#> 5 ATL   Hartsfield Jackson At…  33.6  -84.4  1026    -5 A     America/New_Yo…
#> 6 AUS   Austin Bergstrom Intl   30.2  -97.7   542    -6 A     America/Chicago
#> # ℹ 95 more rows
…
Or we can find which tailnums are missing from planes:

或者我们可以找出 planes 中缺少哪些 tailnum：

flights2 |>
  anti_join(planes, join_by(tailnum)) |> 
  distinct(tailnum)
#> # A tibble: 722 × 1
#>   tailnum
#>   <chr>  
#> 1 N3ALAA 
#> 2 N3DUAA 
#> 3 N542MQ 
#> 4 N730MQ 
#> 5 N9EAMQ 
#> 6 N532UA 
#> # ℹ 716 more rows
…
For example, the code below generates every possible pair of names.

例如，下面的代码生成了所有可能的姓名对。

Since we’re joining df to itself, this is sometimes called a self-join.

由于我们将 df 与其自身连接，这有时被称为 自连接 (self-join)。

Cross joins use a different join function because there’s no distinction between inner/left/right/full when you’re matching every row.

交叉连接使用不同的连接函数，因为当你匹配每一行时，内/左/右/全连接之间没有区别。

df <- tibble(name = c("John", "Simon", "Tracy", "Max"))
df |> cross_join(df)
#> # A tibble: 16 × 2
#>   name.x name.y
#>   <chr>  <chr> 
#> 1 John   John  
#> 2 John   Simon 
#> 3 John   Tracy 
#> 4 John   Max   
#> 5 Simon  John  
#> 6 Simon  Simon 
#> # ℹ 10 more rows
…
Now imagine that you have a table of employee birthdays:

现在想象一下，你有一张员工生日表：

set.seed(123)
employees <- tibble(
  name = sample(babynames::babynames$name, 100),
  birthday = ymd("2022-01-01") + (sample(365, 100, replace = TRUE) - 1)
)
employees
#> # A tibble: 100 × 2
#>   name     birthday  
#>   <chr>    <date>    
#> 1 Kemba    2022-01-22
#> 2 Orean    2022-06-26
#> 3 Kirstyn  2022-02-11
#> 4 Amparo   2022-11-11
#> 5 Belen    2022-03-25
#> 6 Rayshaun 2022-01-11
#> # ℹ 94 more rows

And for each employee we want to find the last party date that comes before (or on) their birthday.

对于每位员工，我们都想找到在他们生日之前（或当天）的最后一个派对日期。

We can express that with a rolling join:

我们可以用滚动连接来表达：

employees |> 
  left_join(parties, join_by(closest(birthday >= party)))
#> # A tibble: 100 × 4
#>   name     birthday       q party     
#>   <chr>    <date>     <int> <date>    
#> 1 Kemba    2022-01-22     1 2022-01-10
#> 2 Orean    2022-06-26     2 2022-04-04
#> 3 Kirstyn  2022-02-11     1 2022-01-10
#> 4 Amparo   2022-11-11     4 2022-10-03
#> 5 Belen    2022-03-25     1 2022-01-10
#> 6 Rayshaun 2022-01-11     1 2022-01-10
#> # ℹ 94 more rows
…
Now we can match each employee to their party.

现在我们可以将每位员工与他们的派对匹配起来。

This is a good place to use unmatched = "error" because we want to quickly find out if any employees didn’t get assigned a party.

这里很适合使用 unmatched = "error"，因为我们想快速找出是否有任何员工没有被分配到派对。

employees |> 
  inner_join(parties, join_by(between(birthday, start, end)), unmatched = "error")
#> # A tibble: 100 × 6
#>   name     birthday       q party      start      end       
#>   <chr>    <date>     <int> <date>     <date>     <date>    
#> 1 Kemba    2022-01-22     1 2022-01-10 2022-01-01 2022-04-03
#> 2 Orean    2022-06-26     2 2022-04-04 2022-04-04 2022-07-10
#> 3 Kirstyn  2022-02-11     1 2022-01-10 2022-01-01 2022-04-03
#> 4 Amparo   2022-11-11     4 2022-10-03 2022-10-03 2022-12-31
#> 5 Belen    2022-03-25     1 2022-01-10 2022-01-01 2022-04-03
#> 6 Rayshaun 2022-01-11     1 2022-01-10 2022-01-01 2022-04-03
#> # ℹ 94 more rows
…
