15 Regular expressions – R 数据科学 2e
…
str_detect() returns a logical vector that is TRUE if the pattern matches an element of the character vector and FALSE otherwise:
str_detect() 返回一个逻辑向量，如果模式匹配字符向量中的某个元素，则为 TRUE，否则为 FALSE：

str_detect(c("a", "b", "c"), "[aeiou]")
#> [1]  TRUE FALSE FALSE

Since str_detect() returns a logical vector of the same length as the initial vector, it pairs well with filter(). For example, this code finds all the most popular names containing a lower-case “x”:

由于 str_detect() 返回一个与初始向量长度相同的逻辑向量，它与 filter() 配合得很好。例如，这段代码查找所有包含小写字母“x”的最受欢迎的名字：

babynames |> 
  filter(str_detect(name, "x")) |> 
  count(name, wt = n, sort = TRUE)
#> # A tibble: 974 × 2
#>   name           n
#>   <chr>      <int>
#> 1 Alexander 665492
#> 2 Alexis    399551
#> 3 Alex      278705
#> 4 Alexandra 232223
#> 5 Max       148787
#> 6 Alexa     123032
#> # ℹ 968 more rows
…
It’s natural to use str_count() with mutate(). The following example uses str_count() with character classes to count the number of vowels and consonants in each name.

很自然地，str_count() 可以与 mutate() 一起使用。下面的例子使用 str_count() 和字符类来计算每个名字中元音和辅音的数量。

babynames |> 
  count(name) |> 
  mutate(
    vowels = str_count(name, "[aeiou]"),
    consonants = str_count(name, "[^aeiou]")
  )
#> # A tibble: 97,310 × 4
#>   name          n vowels consonants
#>   <chr>     <int>  <int>      <int>
#> 1 Aaban        10      2          3
#> 2 Aabha         5      2          3
#> 3 Aabid         2      2          3
#> 4 Aabir         1      2          3
#> 5 Aabriella     5      4          5
#> 6 Aada          1      2          2
#> # ℹ 97,304 more rows
…
这种多样化的方法在处理字符串时非常典型——通常有多种方式可以达到你的目标，要么使你的模式更复杂，要么对你的字符串进行一些预处理。如果你在尝试一种方法时遇到困难，换个角度从不同的视角来解决问题通常会很有用。

In this case, since we’re applying two functions to the name, I think it’s easier to transform it first:

在这种情况下，由于我们对名称应用了两个函数，我认为先转换它会更容易：

babynames |> 
  count(name) |> 
  mutate(
    name = str_to_lower(name),
    vowels = str_count(name, "[aeiou]"),
    consonants = str_count(name, "[^aeiou]")
  )
#> # A tibble: 97,310 × 4
#>   name          n vowels consonants
#>   <chr>     <int>  <int>      <int>
#> 1 aaban        10      3          2
#> 2 aabha         5      3          2
#> 3 aabid         2      3          2
#> 4 aabir         1      3          2
#> 5 aabriella     5      5          4
#> 6 aada          1      3          1
#> # ℹ 97,304 more rows
…
要使用 separate_wider_regex() 提取这些数据，我们只需要构建一系列匹配每个部分的正则表达式。如果我们希望该部分的内容出现在输出中，我们给它一个名字：

df |> 
  separate_wider_regex(
    str,
    patterns = c(
      "<", 
      name = "[A-Za-z]+", 
      ">-", 
      gender = ".",
      "_",
      age = "[0-9]+"
    )
  )
#> # A tibble: 7 × 3
#>   name    gender age  
#>   <chr>   <chr>  <chr>
#> 1 Sheryl  F      34   
#> 2 Kisha   F      45   
#> 3 Brandon N      33   
#> 4 Sharon  F      38   
#> 5 Penny   F      58   
#> 6 Justin  M      41   
#> # ℹ 1 more row
…
You could convert to a tibble and name the columns:

你可以将其转换为一个 tibble 并命名列：

sentences |> 
  str_match("the (\\w+) (\\w+)") |> 
  as_tibble(.name_repair = "minimal") |> 
  set_names("match", "word1", "word2")
#> # A tibble: 720 × 3
#>   match             word1  word2 
#>   <chr>             <chr>  <chr> 
#> 1 the smooth planks smooth planks
#> 2 the sheet to      sheet  to    
#> 3 the depth of      depth  of    
#> 4 <NA>              <NA>   <NA>  
#> 5 <NA>              <NA>   <NA>  
#> 6 <NA>              <NA>   <NA>  
#> # ℹ 714 more rows
…
