14 字符串 – R 数据科学 2e （中文版）
…
separate_longer_position() 在实践中比较少见，但一些较老的数据集确实使用一种非常紧凑的格式，其中每个字符都用来记录一个值：

df2 <- tibble(x = c("1211", "131", "21"))
df2 |> 
  separate_longer_position(x, width = 1)
#> # A tibble: 9 × 1
#>   x    
#>   <chr>
#> 1 1    
#> 2 2    
#> 3 1    
#> 4 1    
#> 5 1    
#> 6 3    
#> # ℹ 3 more rows
…
在本节中，我们将向你介绍一些函数，让你能够处理字符串中的单个字母。你将学习如何找到字符串的长度，提取子字符串，以及在图表和表格中处理长字符串。

14.5.1 长度

str_length() 告诉你字符串中有多少个字母：

str_length(c("a", "R for data science", NA))
#> [1]  1 18 NA

你可以将此与 count() 一起使用，以找出美国婴儿姓名长度的分布，然后用 filter() 查看最长的名字，这些名字恰好有 15 个字母7：

babynames |>
  count(length = str_length(name), wt = n)
#> # A tibble: 14 × 2
#>   length        n
#>    <int>    <int>
#> 1      2   338150
#> 2      3  8589596
#> 3      4 48506739
#> 4      5 87011607
#> 5      6 90749404
#> 6      7 72120767
#> # ℹ 8 more rows

babynames |> 
  filter(str_length(name) == 15) |> 
  count(name, wt = n, sort = TRUE)
#> # A tibble: 34 × 2
#>   name                n
#>   <chr>           <int>
#> 1 Franciscojavier   123
#> 2 Christopherjohn   118
#> 3 Johnchristopher   118
#> 4 Christopherjame   108
#> 5 Christophermich    52
#> 6 Ryanchristopher    45
#> # ℹ 28 more rows
…
请注意，如果字符串太短，str_sub() 不会失败：它只会返回尽可能多的内容：

str_sub("a", 1, 5)
#> [1] "a"

我们可以使用 str_sub() 和 mutate() 来找出每个名字的首字母和末尾字母：

babynames |> 
  mutate(
    first = str_sub(name, 1, 1),
    last = str_sub(name, -1, -1)
  )
#> # A tibble: 1,924,665 × 7
#>    year sex   name          n   prop first last 
#>   <dbl> <chr> <chr>     <int>  <dbl> <chr> <chr>
#> 1  1880 F     Mary       7065 0.0724 M     y    
#> 2  1880 F     Anna       2604 0.0267 A     a    
#> 3  1880 F     Emma       2003 0.0205 E     a    
#> 4  1880 F     Elizabeth  1939 0.0199 E     h    
#> 5  1880 F     Minnie     1746 0.0179 M     e    
#> 6  1880 F     Margaret   1578 0.0162 M     t    
#> # ℹ 1,924,659 more rows
…
